{
  "zoomControl": true,
  "fullscreenControl": true,
  "mapTypeControl": false,
  "streetViewControl": false,
  "styles": [
    {
      "featureType": "all",
      "elementType": "all",
      "stylers": [
        {
          "hue": "#e7ecf0"
        }
      ]
    },
    {
      "featureType": "poi",
      "elementType": "all",
      "stylers": [
        {
          "visibility": "off"
        }
      ]
    },
    {
      "featureType": "road",
      "elementType": "all",
      "stylers": [
        {
          "saturation": -70
        }
      ]
    },
    {
      "featureType": "transit",
      "elementType": "all",
      "stylers": [
        {
          "visibility": "off"
        }
      ]
    },
    {
      "featureType": "water",
      "elementType": "all",
      "stylers": [
        {
          "visibility": "simplified"
        },
        {
          "saturation": -60
        }
      ]
    }
  ]
}